<svg class="svglogo" xmlns="http://www.w3.org/2000/svg" xmlns:xlink="http://www.w3.org/1999/xlink" version="1.1" id="Layer_1" x="0px" y="0px" viewBox="0 0 1466.2 474.7" style="enable-background:new 0 0 1466.2 474.7;" xml:space="preserve">
<g>
	<path class="st0" d="M225.1,139.9h-130c-18.6,0-33.7,15.1-33.7,33.7s15.1,33.7,33.7,33.7h225l0,93.8c0,52.5-42.6,95.1-95.1,95.1   h-1.5H95.1C42.6,396.1,0,353.6,0,301.1v-74.9c0,0,0,0,0,0l0,0v0c13.2,23.8,35.1,42.1,61.3,50.7l0,0v24.2   c0,18.6,15.1,33.7,33.7,33.7v0h130v0c18.6,0,33.7-15.1,33.7-33.7c0,0,0-32.5,0-32.5H95.1C42.6,268.6,0,226.1,0,173.6   s42.6-95.1,95.1-95.1h130c52.5,0,95.1,42.6,95.1,95.1l0,19l-61.3,0v-19C258.8,155,243.7,139.9,225.1,139.9z"></path>
	<path class="st0" d="M1029.8,277.6c-26-8.5-47.7-26.5-61-49.9v168.4h61L1029.8,277.6z"></path>
	<path class="st0" d="M1193.5,78.5H968.8v95.1h0c0,52.5,42.6,95.1,95.1,95.1l0,0h129.7c52.6,0,95.2-42.5,95.4-95.1   C1288.7,121,1246.1,78.5,1193.5,78.5z M1193.5,207.6h-129.7c-18.8,0-34-15.3-34-34v-34h163.7c18.8,0,34.2,15.3,34.4,34   C1227.7,192.4,1212.3,207.6,1193.5,207.6z"></path>
	<path class="st0" d="M561.5,268.6c-52.5,0-95.1-42.6-95.1-95.1s42.6-95.1,95.1-95.1h225.1v61.3H561.5c-18.7,0-33.9,15.2-33.9,33.9   s15.2,33.9,33.9,33.9h225.1v61L561.5,268.6z"></path>
	<path class="st0" d="M527.4,277.6c-26-8.5-47.7-26.5-61-49.9l0,0v73.1c0,52.7,42.7,95.4,95.4,95.4h224.7v-61.3l-224.7,0.3   c-19,0-34.4-15.4-34.4-34.4L527.4,277.6L527.4,277.6z"></path>
</g>
<g>
	<path class="st0" d="M1466.2,474.7h-125.3v-45.3c0-11.8,2.2-21.2,6.5-28.3c4.3-7.1,11.2-12.2,20.5-15.4c9.3-3.2,21.5-4.8,36.6-4.8   c14.1,0,25.8,1.5,34.9,4.6c9.1,3,15.9,8.1,20.2,15.2c4.3,7.1,6.5,16.6,6.5,28.7V474.7z M1461.3,469.2v-37.9   c0-7.7-0.8-14.3-2.4-19.9c-1.6-5.6-4.5-10.3-8.7-14.1c-4.2-3.8-9.9-6.5-17.3-8.4c-7.4-1.8-16.9-2.7-28.4-2.7   c-15.3,0-27.2,1.5-35.7,4.5c-8.5,3-14.5,7.8-17.9,14.3c-3.4,6.6-5.2,15.3-5.2,26.4v37.9H1461.3z"></path>
	<path class="st0" d="M1466.2,353.6h-125.3v-79.4h4.9v74h55.3V281h4.9v67.1h55.5v-74h4.9V353.6z"></path>
	<path class="st0" d="M1466.2,248.9h-125.3v-8l98.7-48.3l-98.7-48.1v-8h125.3v5.4h-119.3l97.3,47.5v6.2l-97.3,47.7h119.3V248.9z"></path>
	<path class="st0" d="M1468.1,54.7c0,12.7-2.6,23.1-7.8,31.1c-5.2,8-12.6,14-22.1,17.8c-9.5,3.8-20.7,5.7-33.6,5.7   c-22.4,0-39-4.3-49.7-13c-10.7-8.7-16.1-22.6-16.1-41.6c0-19.1,5.4-33,16.1-41.6c10.7-8.7,27.3-13,49.7-13c12.8,0,24,1.9,33.6,5.7   c9.5,3.8,16.9,9.8,22.1,17.8C1465.5,31.6,1468.1,42,1468.1,54.7z M1463.3,54.7c0-16.6-5-29-15-37.2c-10-8.2-24.5-12.3-43.6-12.3   c-14.9,0-26.8,1.8-35.7,5.4c-8.9,3.6-15.3,9.1-19.3,16.4c-4,7.3-5.9,16.5-5.9,27.5c0,11,2,20.2,5.9,27.5c4,7.3,10.4,12.8,19.3,16.4   c8.9,3.6,20.8,5.4,35.7,5.4c19.1,0,33.6-4.1,43.6-12.3C1458.3,83.7,1463.3,71.3,1463.3,54.7z"></path>
</g>
</svg>